[
  {
    "id": 0,
    "thumbnail": "https://upload.wikimedia.org/wikipedia/commons/thumb/6/68/St_Kilda_Road_start.jpg/320px-St_Kilda_Road_start.jpg",
    "path": "https://upload.wikimedia.org/wikipedia/commons/6/68/St_Kilda_Road_start.jpg",
    "annotations": [{ "type": "weather_condition", "values": [2,3] }, {"type":"lane_count", "values": [4]}],
    "details": "Credits to Vincent Quach from <a href=\"https://commons.wikimedia.org/wiki/File:St_Kilda_Road_start.jpg\" target=\"_blank\">Wikimedia</a> under Creative Commons 3.0 licence"
  },
  {
    "id": 1,
    "thumbnail": "https://upload.wikimedia.org/wikipedia/commons/thumb/6/68/St_Kilda_Road_start.jpg/320px-St_Kilda_Road_start.jpg",
    "path": "https://upload.wikimedia.org/wikipedia/commons/6/68/St_Kilda_Road_start.jpg",
    "annotations": [],
    "details": "Credits to Vincent Quach from <a href=\"https://commons.wikimedia.org/wiki/File:St_Kilda_Road_start.jpg\" target=\"_blank\">Wikimedia</a> under Creative Commons 3.0 licence"
  },
  {
    "id": 2,
    "thumbnail": "https://upload.wikimedia.org/wikipedia/commons/thumb/6/68/St_Kilda_Road_start.jpg/320px-St_Kilda_Road_start.jpg",
    "path": "https://upload.wikimedia.org/wikipedia/commons/6/68/St_Kilda_Road_start.jpg",
    "annotations": [],
    "details": "Credits to Vincent Quach from <a href=\"https://commons.wikimedia.org/wiki/File:St_Kilda_Road_start.jpg\" target=\"_blank\">Wikimedia</a> under Creative Commons 3.0 licence"
  }
]
